{
  "project_info": {
    "project_number": "305777269289",
    "firebase_url": "https://jolt-f19ca.firebaseio.com",
    "project_id": "jolt-f19ca",
    "storage_bucket": "jolt-f19ca.appspot.com"
  },
  "client": [
    {
      "client_info": {
        "mobilesdk_app_id": "1:305777269289:android:d920abc3b4e3993a",
        "android_client_info": {
          "package_name": "com.jolt.jolt"
        }
      },
      "oauth_client": [
        {
          "client_id": "305777269289-j018u6enujnumj5kthlntdt11c0eegb3.apps.googleusercontent.com",
          "client_type": 1,
          "android_info": {
            "package_name": "com.jolt.jolt",
            "certificate_hash": "388a12eede074b0506100849068a3a47b76712c4"
          }
        },
        {
          "client_id": "305777269289-afuulr64niqgb58u58p26tc8ef9mup1b.apps.googleusercontent.com",
          "client_type": 3
        }
      ],
      "api_key": [
        {
          "current_key": "AIzaSyDBmT4wTYFK9NPbJlt_ok_HcboAfz_KhCI"
        }
      ],
      "services": {
        "appinvite_service": {
          "other_platform_oauth_client": [
            {
              "client_id": "305777269289-afuulr64niqgb58u58p26tc8ef9mup1b.apps.googleusercontent.com",
              "client_type": 3
            }
          ]
        }
      }
    },
    {
      "client_info": {
        "mobilesdk_app_id": "1:305777269289:android:d331c1762753394c511a38",
        "android_client_info": {
          "package_name": "com.transcendproserv.jolt"
        }
      },
      "oauth_client": [
        {
          "client_id": "305777269289-afuulr64niqgb58u58p26tc8ef9mup1b.apps.googleusercontent.com",
          "client_type": 3
        }
      ],
      "api_key": [
        {
          "current_key": "AIzaSyDBmT4wTYFK9NPbJlt_ok_HcboAfz_KhCI"
        }
      ],
      "services": {
        "appinvite_service": {
          "other_platform_oauth_client": [
            {
              "client_id": "305777269289-afuulr64niqgb58u58p26tc8ef9mup1b.apps.googleusercontent.com",
              "client_type": 3
            }
          ]
        }
      }
    }
  ],
  "configuration_version": "1"
}